---------------------------------------------------------------

[2020-05-27T14:38:29+08:00] 120.38.93.70 GET demo.youminai.com/admin.php/site/device_monitor/index.html
[ error ] [1]Class 'app\site\admin\Redis' not found
---------------------------------------------------------------

[2020-05-27T14:38:34+08:00] 120.38.93.70 GET demo.youminai.com/admin.php/site/device_monitor/index.html
[ error ] [1]Class 'app\site\admin\Redis' not found
---------------------------------------------------------------

[2020-05-27T14:39:09+08:00] 120.38.93.70 GET demo.youminai.com/admin.php/site/device_monitor/index.html
[ error ] [1]Class 'app\site\admin\Redis' not found
---------------------------------------------------------------

[2020-05-27T14:39:11+08:00] 120.38.93.70 GET demo.youminai.com/admin.php/site/device_monitor/index.html
[ error ] [1]Class 'app\site\admin\Redis' not found
---------------------------------------------------------------

[2020-05-27T14:39:47+08:00] 120.38.93.70 GET demo.youminai.com/admin.php/site/device_monitor/index.html
[ error ] [0]Redis server went away
